Mod 10 Data Discovery
…
Task 2: Random Intercept or Random Slope?

`summarise()` has grouped output by 'family'. You can override using the
`.groups` argument.

# A tibble: 197 × 2
   family mean_height
   <fct>        <dbl>
 1 1             70.1
 2 10            65.5
 3 100           70.7
 4 101           70.4
 5 102           66.2
 6 103           69.2
 7 104           66.6
 8 105           66.5
 9 106           68.5
10 107           67.7
# ℹ 187 more rows
…
